Sample name,Flow cell,model,Species,parent,plexed,run,BSA,basecaller
Ecoli_r10,r10.3,Rerio,E.coli,Ecoli_r10,FALSE,0,FALSE,Guppy
Ecoli_r10.3_SUP,r10.3,SUP,E.coli,Ecoli_r10,FALSE,0,FALSE,Guppy
Ecoli_r10.4,r10.4,HAC,E.coli,Ecoli_r10.4,FALSE,0,FALSE,Guppy
Ecoli_r10.4_sup,r10.4,SUP,E.coli,Ecoli_r10.4,FALSE,0,FALSE,Guppy
Ecoli_r10.4_sup_dup,r10.4,DUPLEX,E.coli,Ecoli_r10.4,FALSE,0,FALSE,Guppy
Ecoli_r9,r9.4.1,HAC,E.coli,Ecoli_r9,TRUE,0,FALSE,Guppy
Ecoli_r9_sup,r9.4.1,SUP,E.coli,Ecoli_r9,TRUE,0,FALSE,Guppy
Kpneumo_r10,r10.3,Rerio,K.pneumoniae,Kpneumo_r10,FALSE,0,FALSE,Guppy
Kpneumo_r10.3_SUP,r10.3,SUP,K.pneumoniae,Kpneumo_r10,FALSE,0,FALSE,Guppy
Kpneumo_r10.4,r10.4,HAC,K.pneumoniae,Kpneumo_r10.4,FALSE,0,FALSE,Guppy
Kpneumo_r10.4_sup,r10.4,SUP,K.pneumoniae,Kpneumo_r10.4,FALSE,0,FALSE,Guppy
Kpneumo_r10.4_sup_dup,r10.4,DUPLEX,K.pneumoniae,Kpneumo_r10.4,FALSE,0,FALSE,Guppy
Kpneumo_r9,r9.4.1,HAC,K.pneumoniae,Kpneumo_r9,TRUE,0,FALSE,Guppy
Kpneumo_r9_sup,r9.4.1,SUP,K.pneumoniae,Kpneumo_r9,TRUE,0,FALSE,Guppy
MRSA_r10,r10.3,Rerio,S.aureus,MRSA_r10,FALSE,0,FALSE,Guppy
MRSA_r10.3_SUP,r10.3,SUP,S.aureus,MRSA_r10,FALSE,0,FALSE,Guppy
MRSA_r10.4,r10.4,HAC,S.aureus,MRSA_r10.4,FALSE,0,FALSE,Guppy
MRSA_r10.4_sup,r10.4,SUP,S.aureus,MRSA_r10.4,FALSE,0,FALSE,Guppy
MRSA_r10.4_sup_dup,r10.4,DUPLEX,S.aureus,MRSA_r10.4,FALSE,0,FALSE,Guppy
MRSA_r9,r9.4.1,HAC,S.aureus,MRSA_r9,TRUE,0,FALSE,Guppy
MRSA_r9_sup,r9.4.1,SUP,S.aureus,MRSA_r9,TRUE,0,FALSE,Guppy
Pa01_r10,r10.3,Rerio,P.aeruginosa,Pa01_r10,FALSE,0,FALSE,Guppy
Pa01_r10.3_SUP,r10.3,SUP,P.aeruginosa,Pa01_r10,FALSE,0,FALSE,Guppy
Pa01_r10.4,r10.4,HAC,P.aeruginosa,Pa01_r10.4,FALSE,0,FALSE,Guppy
Pa01_r10.4_sup,r10.4,SUP,P.aeruginosa,Pa01_r10.4,FALSE,0,FALSE,Guppy
Pa01_r10.4_sup_dup,r10.4,DUPLEX,P.aeruginosa,Pa01_r10.4,FALSE,0,FALSE,Guppy
Pa01_r9,r9.4.1,HAC,P.aeruginosa,Pa01_r9,TRUE,0,FALSE,Guppy
Pa01_r9_sup,r9.4.1,SUP,P.aeruginosa,Pa01_r9,TRUE,0,FALSE,Guppy
ecoli,Illumina,Illumina,E.coli,ecoli,TRUE,1,FALSE,Guppy
Ecoli_r10.4_plex,r10.4,HAC,E.coli,Ecoli_r10.4_plex,TRUE,1,FALSE,Guppy
Ecoli_r10.4_plex_sup_dup,r10.4,DUPLEX,E.coli,Ecoli_r10.4_plex,TRUE,1,FALSE,Guppy
Ecoli_r10.4_plex_sup_dup_hybrid,r10.4,DUPLEX+SIMPLEX,E.coli,Ecoli_r10.4_plex,TRUE,1,FALSE,Guppy
Ecoli_r10.4_plex_sup_simp,r10.4,SUP,E.coli,Ecoli_r10.4_plex,TRUE,1,FALSE,Guppy
kpneumo,Illumina,Illumina,K.pneumoniae,kpneumo,TRUE,1,FALSE,Guppy
Kpneumo_r10.4_plex,r10.4,HAC,K.pneumoniae,Kpneumo_r10.4_plex,TRUE,1,FALSE,Guppy
Kpneumo_r10.4_plex_sup_dup,r10.4,DUPLEX,K.pneumoniae,Kpneumo_r10.4_plex,TRUE,1,FALSE,Guppy
Kpneumo_r10.4_plex_sup_dup_hybrid,r10.4,DUPLEX+SIMPLEX,K.pneumoniae,Kpneumo_r10.4_plex,TRUE,1,FALSE,Guppy
Kpneumo_r10.4_plex_sup_simp,r10.4,SUP,K.pneumoniae,Kpneumo_r10.4_plex,TRUE,1,FALSE,Guppy
MRSA,Illumina,Illumina,S.aureus,MRSA,TRUE,1,FALSE,Guppy
MRSA_r10.4_plex,r10.4,HAC,S.aureus,MRSA_r10.4_plex,TRUE,1,FALSE,Guppy
MRSA_r10.4_plex_sup_dup,r10.4,DUPLEX,S.aureus,MRSA_r10.4_plex,TRUE,1,FALSE,Guppy
MRSA_r10.4_plex_sup_dup_hybrid,r10.4,DUPLEX+SIMPLEX,S.aureus,MRSA_r10.4_plex,TRUE,1,FALSE,Guppy
MRSA_r10.4_plex_sup_simp,r10.4,SUP,S.aureus,MRSA_r10.4_plex,TRUE,1,FALSE,Guppy
Pa01,Illumina,Illumina,P.aeruginosa,Pa01,TRUE,1,FALSE,Guppy
Pa01_r10.4_plex,r10.4,HAC,P.aeruginosa,Pa01_r10.4_plex,TRUE,1,FALSE,Guppy
Pa01_r10.4_plex_sup_dup,r10.4,DUPLEX,P.aeruginosa,Pa01_r10.4_plex,TRUE,1,FALSE,Guppy
Pa01_r10.4_plex_sup_dup_hybrid,r10.4,DUPLEX+SIMPLEX,P.aeruginosa,Pa01_r10.4_plex,TRUE,1,FALSE,Guppy
Pa01_r10.4_plex_sup_simp,r10.4,SUP,P.aeruginosa,Pa01_r10.4_plex,TRUE,1,FALSE,Guppy
Ecoli_r10.4_SUP_DUP_3,r10.4,DUPLEX,E.coli,Ecoli_r10.4_SUP_simplex,FALSE,2,FALSE,Guppy
Ecoli_r10.4_SUP_duplex,r10.4,DUPLEX,E.coli,Ecoli_r10.4_SUP_simplex,FALSE,2,FALSE,Guppy
Ecoli_r10.4_SUP_SIM_3,r10.4,SUP,E.coli,Ecoli_r10.4_SUP_simplex,FALSE,2,FALSE,Guppy
Ecoli_r10.4_SUP_simplex,r10.4,SUP,E.coli,Ecoli_r10.4_SUP_simplex,FALSE,2,FALSE,Guppy
Kpneu_r10.4_SUP_DUP_3,r10.4,DUPLEX,K.pneumoniae,Kpneumo_r10.4_SUP_simplex,FALSE,2,FALSE,Guppy
Kpneu_r10.4_SUP_duplex,r10.4,DUPLEX,K.pneumoniae,Kpneumo_r10.4_SUP_simplex,FALSE,2,FALSE,Guppy
Kpneu_r10.4_SUP_SIM_3,r10.4,SUP,K.pneumoniae,Kpneumo_r10.4_SUP_simplex,FALSE,2,FALSE,Guppy
Kpneu_r10.4_SUP_simplex,r10.4,SUP,K.pneumoniae,Kpneumo_r10.4_SUP_simplex,FALSE,2,FALSE,Guppy
MRSA_r10.4_SUP_DUP_3,r10.4,DUPLEX,S.aureus,MRSA_r10.4_SUP_simplex,FALSE,2,FALSE,Guppy
MRSA_r10.4_SUP_duplex,r10.4,DUPLEX,S.aureus,MRSA_r10.4_SUP_simplex,FALSE,2,FALSE,Guppy
MRSA_r10.4_SUP_SIM_3,r10.4,SUP,S.aureus,MRSA_r10.4_SUP_simplex,FALSE,2,FALSE,Guppy
MRSA_r10.4_SUP_simplex,r10.4,SUP,S.aureus,MRSA_r10.4_SUP_simplex,FALSE,2,FALSE,Guppy
Pa01_r10.4_SUP_DUP_3,r10.4,DUPLEX,P.aeruginosa,Pa01_r10.4_SUP_simplex,FALSE,2,FALSE,Guppy
Pa01_r10.4_SUP_duplex,r10.4,DUPLEX,P.aeruginosa,Pa01_r10.4_SUP_simplex,FALSE,2,FALSE,Guppy
Pa01_r10.4_SUP_SIM_3,r10.4,SUP,P.aeruginosa,Pa01_r10.4_SUP_simplex,FALSE,2,FALSE,Guppy
Pa01_r10.4_SUP_simplex,r10.4,SUP,P.aeruginosa,Pa01_r10.4_SUP_simplex,FALSE,2,FALSE,Guppy
Cell114_Ecoli_BSA_221206_NK_dorado_SUP.fastq.gz,r10.4.1,SUP,E.coli,Ecoli_BSA_r1041_hac,FALSE,3,TRUE,Dorado
Cell114_Ecoli_BSA_221206_NK_duplex,r10.4.1,DUPLEX,E.coli,Ecoli_BSA_r1041_hac,FALSE,3,TRUE,Guppy
Cell114_Ecoli_BSA_221206_NK_sup,r10.4.1,SUP,E.coli,Ecoli_BSA_r1041_hac,FALSE,3,TRUE,Guppy
Cell114ref_Ecoli_221012_NK_dorado_SUP.fastq.gz,r10.4.1,SUP,E.coli,Ecoli_r1041_hac,FALSE,3,FALSE,Dorado
Cell114ref_Ecoli_221012_NK_duplex,r10.4.1,DUPLEX,E.coli,Ecoli_r1041_hac,FALSE,3,FALSE,Guppy
Cell114ref_Ecoli_221012_NK_sup,r10.4.1,SUP,E.coli,Ecoli_r1041_hac,FALSE,3,FALSE,Guppy
Cell114ref_Kpneu_BSA_221019_NK_dorado_SUP.fastq.gz,r10.4.1,SUP,K.pneumoniae,Kpneu_BSA_r1041_hac,FALSE,3,TRUE,Dorado
Cell114ref_Kpneu_BSA_221019_NK_duplex,r10.4.1,DUPLEX,K.pneumoniae,Kpneu_BSA_r1041_hac,FALSE,3,TRUE,Guppy
Cell114ref_Kpneu_BSA_221019_NK_sup,r10.4.1,SUP,K.pneumoniae,Kpneu_BSA_r1041_hac,FALSE,3,TRUE,Guppy
Cell114ref_Pa01_BSA_221019_NK_dorado_SUP.fastq.gz,r10.4.1,SUP,P.aeruginosa,Pa01_BSA_r1041_hac,FALSE,3,TRUE,Dorado
Cell114ref_Pa01_BSA_221019_NK_duplex,r10.4.1,DUPLEX,P.aeruginosa,Pa01_BSA_r1041_hac,FALSE,3,TRUE,Guppy
Cell114ref_Pa01_BSA_221019_NK_sup,r10.4.1,SUP,P.aeruginosa,Pa01_BSA_r1041_hac,FALSE,3,TRUE,Guppy
Cell114ref_Saur_BSA_221019_NK_dorado_SUP.fastq.gz,r10.4.1,SUP,S.aureus,MRSA_BSA_r1041_hac,FALSE,3,TRUE,Dorado
Cell114ref_Saur_BSA_221019_NK_duplex,r10.4.1,DUPLEX,S.aureus,MRSA_BSA_r1041_hac,FALSE,3,TRUE,Guppy
Cell114ref_Saur_BSA_221019_NK_sup,r10.4.1,SUP,S.aureus,MRSA_BSA_r1041_hac,FALSE,3,TRUE,Guppy
Ecoli_BSA_r1041_duplex,r10.4.1,DUPLEX,E.coli,Ecoli_BSA_r1041_hac,FALSE,3,TRUE,Guppy
Ecoli_BSA_r1041_hac,r10.4.1,HAC,E.coli,Ecoli_BSA_r1041_hac,FALSE,3,TRUE,Guppy
Ecoli_BSA_r1041_simplex,r10.4.1,SUP,E.coli,Ecoli_BSA_r1041_hac,FALSE,3,TRUE,Guppy
Ecoli_r1041_duplex,r10.4.1,DUPLEX,E.coli,Ecoli_r1041_simplex,FALSE,3,FALSE,Guppy
Ecoli_r1041_hac,r10.4.1,HAC,E.coli,Ecoli_r1041_hac,FALSE,3,FALSE,Guppy
Ecoli_r1041_simplex,r10.4.1,SUP,E.coli,Ecoli_r1041_simplex,FALSE,3,FALSE,Guppy
Kpneu_BSA_r1041_duplex,r10.4.1,DUPLEX,K.pneumoniae,Kpneu_BSA_r1041_simplex,FALSE,3,TRUE,Guppy
Kpneu_BSA_r1041_hac,r10.4.1,HAC,K.pneumoniae,Kpneu_BSA_r1041_hac,FALSE,3,TRUE,Guppy
Kpneu_BSA_r1041_simplex,r10.4.1,SUP,K.pneumoniae,Kpneu_BSA_r1041_simplex,FALSE,3,TRUE,Guppy
MRSA_BSA_r1041_duplex,r10.4.1,DUPLEX,S.aureus,MRSA_BSA_r1041_simplex,FALSE,3,TRUE,Guppy
MRSA_BSA_r1041_hac,r10.4.1,HAC,S.aureus,MRSA_BSA_r1041_hac,FALSE,3,TRUE,Guppy
MRSA_BSA_r1041_simplex,r10.4.1,SUP,S.aureus,MRSA_BSA_r1041_simplex,FALSE,3,TRUE,Guppy
Pa01_BSA_r1041_duplex,r10.4.1,DUPLEX,P.aeruginosa,Pa01_BSA_r1041_simplex,FALSE,3,TRUE,Guppy
Pa01_BSA_r1041_hac,r10.4.1,HAC,P.aeruginosa,Pa01_BSA_r1041_hac,FALSE,3,TRUE,Guppy
Pa01_BSA_r1041_simplex,r10.4.1,SUP,P.aeruginosa,Pa01_BSA_r1041_simplex,FALSE,3,TRUE,Guppy
Cell114_Ecoli_BSA_221206_NK_dorado_DUPLEX,r10.4.1,DUPLEX,E.coli,Ecoli_BSA_r1041_hac,FALSE,3,TRUE,Dorado
Cell114ref_Ecoli_221012_NK_dorado_DUPLEX,r10.4.1,DUPLEX,E.coli,Ecoli_r1041_hac,FALSE,3,FALSE,Dorado
Cell114ref_Kpneu_BSA_221019_NK_dorado_DUPLEX,r10.4.1,DUPLEX,K.pneumoniae,Kpneu_BSA_r1041_hac,FALSE,3,TRUE,Dorado
Cell114ref_Pa01_BSA_221019_NK_dorado_DUPLEX,r10.4.1,DUPLEX,P.aeruginosa,Pa01_BSA_r1041_hac,FALSE,3,TRUE,Dorado
Cell114ref_Saur_BSA_221019_NK_dorado_DUPLEX,r10.4.1,DUPLEX,S.aureus,MRSA_BSA_r1041_hac,FALSE,3,TRUE,Dorado
RBK114_BSAPOS_Kpneu,r10.4.1,SUP,K.pneumoniae,RBK114_BSAPOS_Kpneu,TRUE,4,TRUE,Guppy
RBK114_BSAPOS_Pa01,r10.4.1,SUP,P.aeruginosa,RBK114_BSAPOS_Pa01,TRUE,4,TRUE,Guppy
RBK114_BSAPOS_Ecoli,r10.4.1,SUP,E.coli,RBK114_BSAPOS_Ecoli,TRUE,4,TRUE,Guppy
RBK114_BSAPOS_MRSA,r10.4.1,SUP,S.aureus,RBK114_BSAPOS_MRSA,TRUE,4,TRUE,Guppy
RBK114_BSANEG_Kpneu,r10.4.1,SUP,K.pneumoniae,RBK114_BSANEG_Kpneu,TRUE,4,FALSE,Guppy
RBK114_BSANEG_Pa01,r10.4.1,SUP,P.aeruginosa,RBK114_BSANEG_Pa01,TRUE,4,FALSE,Guppy
RBK114_BSANEG_Ecoli,r10.4.1,SUP,E.coli,RBK114_BSANEG_Ecoli,TRUE,4,FALSE,Guppy
RBK114_BSANEG_MRSA,r10.4.1,SUP,S.aureus,RBK114_BSANEG_MRSA,TRUE,4,FALSE,Guppy
RBK114_BSAPOS_Kpneu_duplex,r10.4.1,DUPLEX,K.pneumoniae,RBK114_BSAPOS_Kpneu,TRUE,4,TRUE,Guppy
RBK114_BSAPOS_Pa01_duplex,r10.4.1,DUPLEX,P.aeruginosa,RBK114_BSAPOS_Pa01,TRUE,4,TRUE,Guppy
RBK114_BSAPOS_Ecoli_duplex,r10.4.1,DUPLEX,E.coli,RBK114_BSAPOS_Ecoli,TRUE,4,TRUE,Guppy
RBK114_BSAPOS_MRSA_duplex,r10.4.1,DUPLEX,S.aureus,RBK114_BSAPOS_MRSA,TRUE,4,TRUE,Guppy
RBK114_BSANEG_Kpneu_duplex,r10.4.1,DUPLEX,K.pneumoniae,RBK114_BSANEG_Kpneu,TRUE,4,FALSE,Guppy
RBK114_BSANEG_Pa01_duplex,r10.4.1,DUPLEX,P.aeruginosa,RBK114_BSANEG_Pa01,TRUE,4,FALSE,Guppy
RBK114_BSANEG_Ecoli_duplex,r10.4.1,DUPLEX,E.coli,RBK114_BSANEG_Ecoli,TRUE,4,FALSE,Guppy
RBK114_BSANEG_MRSA_duplex,r10.4.1,DUPLEX,S.aureus,RBK114_BSANEG_MRSA,TRUE,4,FALSE,Guppy
NATIVE_BSAPOS_Kpneu,r10.4.1,SUP,K.pneumoniae,NATIVE_BSAPOS_Kpneu,NATIVE,5,TRUE,Guppy
NATIVE_BSAPOS_Ecoli,r10.4.1,SUP,E.coli,NATIVE_BSAPOS_Ecoli,NATIVE,5,TRUE,Guppy
NATIVE_BSAPOS_Pa01,r10.4.1,SUP,P.aeruginosa,NATIVE_BSAPOS_Pa01,NATIVE,5,TRUE,Guppy
NATIVE_BSAPOS_MRSA,r10.4.1,SUP,S.aureus,NATIVE_BSAPOS_MRSA,NATIVE,5,TRUE,Guppy
NATIVE_BSAPOS_Kpneu_duplex,r10.4.1,DUPLEX,K.pneumoniae,NATIVE_BSAPOS_Kpneu,NATIVE,5,TRUE,Guppy
NATIVE_BSAPOS_Ecoli_duplex,r10.4.1,DUPLEX,E.coli,NATIVE_BSAPOS_Ecoli,NATIVE,5,TRUE,Guppy
NATIVE_BSAPOS_Pa01_duplex,r10.4.1,DUPLEX,P.aeruginosa,NATIVE_BSAPOS_Pa01,NATIVE,5,TRUE,Guppy
NATIVE_BSAPOS_MRSA_duplex,r10.4.1,DUPLEX,S.aureus,NATIVE_BSAPOS_MRSA,NATIVE,5,TRUE,Guppy
NATIVE_BSAPOS_Kpneu_repeat,r10.4.1,SUP,K.pneumoniae,NATIVE_BSAPOS_Kpneu_repeat,NATIVE,6,TRUE,Guppy
NATIVE_BSAPOS_Ecoli_repeat,r10.4.1,SUP,E.coli,NATIVE_BSAPOS_Ecoli_repeat,NATIVE,6,TRUE,Guppy
NATIVE_BSAPOS_Pa01_repeat,r10.4.1,SUP,P.aeruginosa,NATIVE_BSAPOS_Pa01_repeat,NATIVE,6,TRUE,Guppy
NATIVE_BSAPOS_MRSA_repeat,r10.4.1,SUP,S.aureus,NATIVE_BSAPOS_MRSA_repeat,NATIVE,6,TRUE,Guppy
RBK114_BSANEG_Ecoli_dorado_SUP,r10.4.1,SUP,E.coli,RBK114_BSANEG_Ecoli,TRUE,5,FALSE,Dorado
RBK114_BSANEG_Kpneu_dorado_SUP,r10.4.1,SUP,K.pneumoniae,RBK114_BSANEG_Kpneu,TRUE,5,FALSE,Dorado
RBK114_BSANEG_MRSA_dorado_SUP,r10.4.1,SUP,S.aureus,RBK114_BSANEG_MRSA,TRUE,5,FALSE,Dorado
RBK114_BSANEG_Pa01_dorado_SUP,r10.4.1,SUP,P.aeruginosa,RBK114_BSANEG_Ecoli,TRUE,5,FALSE,Dorado
RBK114_BSAPOS_Ecoli_dorado_SUP,r10.4.1,SUP,E.coli,RBK114_BSANEG_Ecoli,TRUE,3,TRUE,Dorado
RBK114_BSAPOS_Kpneu_dorado_SUP,r10.4.1,SUP,K.pneumoniae,RBK114_BSANEG_Kpneu,TRUE,5,TRUE,Dorado
RBK114_BSAPOS_MRSA_dorado_SUP,r10.4.1,SUP,S.aureus,RBK114_BSANEG_MRSA,TRUE,5,TRUE,Dorado
RBK114_BSAPOS_Pa01_dorado_SUP,r10.4.1,SUP,P.aeruginosa,RBK114_BSANEG_Ecoli,TRUE,5,TRUE,Dorado