ecoli,/home/nick/soft/assembly_comparison/refs/INDELs/Ecoli_mut.fasta
kpneumo,/home/nick/soft/assembly_comparison/refs/INDELs/Kpneumo_mut.fasta
MRSA,/home/nick/soft/assembly_comparison/refs/INDELs/MRSA_mut.fasta
Pa01,/home/nick/soft/assembly_comparison/refs/INDELs/Pa01_mut.fasta
