Ecoli_r10,ecoli,/mnt/data/analysis/nick/q20_refstrains/data/r10/Ecoli.fastq.gz
Ecoli_r9,ecoli,/mnt/data/analysis/nick/q20_refstrains/data/r9/Ecoli.fastq.gz
Kpneumo_r9,kpneumo,/mnt/data/analysis/nick/q20_refstrains/data/r9/Kpneumo.fastq.gz
Kpneumo_r10,kpneumo,/mnt/data/analysis/nick/q20_refstrains/data/r10/Kpneumo.fastq.gz
MRSA_r9,MRSA,/mnt/data/analysis/nick/q20_refstrains/data/r9/MRSA.fastq.gz
MRSA_r10,MRSA,/mnt/data/analysis/nick/q20_refstrains/data/r10/MRSA.fastq.gz
Pa01_r9,Pa01,/mnt/data/analysis/nick/q20_refstrains/data/r9/Pa01.fastq.gz
Pa01_r10,Pa01,/mnt/data/analysis/nick/q20_refstrains/data/r10/Pa01.fastq.gz
