Ecoli_r10,r103_hac_g507
Ecoli_r9,r941_min_hac_g507
Ecoli_r9_sup,r941_min_sup_g507
Kpneumo_r9,r941_min_hac_g507
Kpneumo_r9_sup,r941_min_sup_g507
Kpneumo_r10,r103_hac_g507
MRSA_r9,r941_min_hac_g507
MRSA_r9_sup,r941_min_sup_g507
MRSA_r10,r103_hac_g507
Pa01_r9,r941_min_hac_g507
Pa01_r9_sup,r941_min_sup_g507
Pa01_r10,r103_hac_g507
Ecoli_r10.4,r104_e81_hac_g5015
Ecoli_r10.4_plex,r104_e81_hac_g5015
Ecoli_r10.4_plex_sup_simp,r104_e81_sup_g5015
Ecoli_r10.4_plex_sup_dup,r104_e81_sup_g5015
Ecoli_r10.4_plex_sup_dup_hybrid,r104_e81_sup_g5015
Ecoli_r10.4_sup,r104_e81_sup_g5015
Ecoli_r10.4_sup_dup,r104_e81_sup_g5015
Kpneumo_r10.4,r104_e81_hac_g5015
Kpneumo_r10.4_plex,r104_e81_hac_g5015
Kpneumo_r10.4_plex_sup_simp,r104_e81_sup_g5015
Kpneumo_r10.4_plex_sup_dup,r104_e81_sup_g5015
Kpneumo_r10.4_plex_sup_dup_hybrid,r104_e81_sup_g5015
MRSA_r10.4,r104_e81_hac_g5015
MRSA_r10.4_plex,r104_e81_hac_g5015
MRSA_r10.4_plex_sup_simp,r104_e81_sup_g5015
MRSA_r10.4_plex_sup_dup,r104_e81_sup_g5015
MRSA_r10.4_plex_sup_dup_hybrid,r104_e81_sup_g5015
Pa01_r10.4,r104_e81_hac_g5015
Pa01_r10.4_plex,r104_e81_hac_g5015
Pa01_r10.4_plex_sup_simp,r104_e81_sup_g5015
Pa01_r10.4_plex_sup_dup,r104_e81_sup_g5015
Pa01_r10.4_plex_sup_dup_hybrid,r104_e81_sup_g5015
Kpneumo_r10.4_sup,r104_e81_sup_g5015
Kpneumo_r10.4_sup_dup,r104_e81_sup_g5015
MRSA_r10.4_sup_dup,r104_e81_sup_g5015
Pa01_r10.4_sup_dup,r104_e81_sup_g5015
MRSA_r10.4_sup,r104_e81_sup_g5015
Pa01_r10.4_sup,r104_e81_sup_g5015
Ecoli_r10.3_SUP,r104_e81_sup_g5015
Kpneumo_r10.3_SUP,r104_e81_sup_g5015
MRSA_r10.3_SUP,r104_e81_sup_g5015
Pa01_r10.3_SUP,r104_e81_sup_g5015
Ecoli_r10.4_SUP_DUP_3,r104_e81_sup_g5015
Ecoli_r10.4_SUP_SIM_3,r104_e81_sup_g5015
Kpneu_r10.4_SUP_DUP_3,r104_e81_sup_g5015
Kpneu_r10.4_SUP_SIM_3,r104_e81_sup_g5015
MRSA_r10.4_SUP_DUP_3,r104_e81_sup_g5015
MRSA_r10.4_SUP_SIM_3,r104_e81_sup_g5015
Pa01_r10.4_SUP_DUP_3,r104_e81_sup_g5015
Pa01_r10.4_SUP_DUP_3,r104_e81_sup_g5015
Ecoli_r1041_duplex,r104_e81_sup_g5015
Ecoli_r1041_simplex,r104_e81_sup_g5015
Pa01_BSA_r1041_duplex,r104_e81_sup_g5015
Pa01_BSA_r1041_simplex,r104_e81_sup_g5015
Kpneu_BSA_r1041_duplex,r104_e81_sup_g5015
Kpneu_BSA_r1041_simplex,r104_e81_sup_g5015
MRSA_BSA_r1041_duplex,r104_e81_sup_g5015
MRSA_BSA_r1041_simplex,r104_e81_sup_g5015
Ecoli_r1041_hac,r1041_e82_400bps_hac_g632
Kpneu_BSA_r1041_hac,r1041_e82_400bps_hac_g632
Pa01_BSA_r1041_hac,r1041_e82_400bps_hac_g632
Ecoli_BSA_r1041_hac,r1041_e82_400bps_hac_g632
MRSA_BSA_r1041_hac,r1041_e82_400bps_hac_g632
Cell114_Ecoli_BSA_221206_NK_duplex,r1041_e82_400bps_sup_v4.2.0
Cell114_Ecoli_BSA_221206_NK_sup,r1041_e82_400bps_sup_v4.2.0
Cell114ref_Ecoli_221012_NK_duplex,r1041_e82_400bps_sup_v4.2.0
Cell114ref_Ecoli_221012_NK_sup,r1041_e82_400bps_sup_v4.2.0
Cell114ref_Kpneu_BSA_221019_NK_duplex,r1041_e82_400bps_sup_v4.2.0
Cell114ref_Kpneu_BSA_221019_NK_sup,r1041_e82_400bps_sup_v4.2.0
Cell114ref_Pa01_BSA_221019_NK_duplex,r1041_e82_400bps_sup_v4.2.0
Cell114ref_Pa01_BSA_221019_NK_sup,r1041_e82_400bps_sup_v4.2.0
Cell114ref_Saur_BSA_221019_NK_duplex,r1041_e82_400bps_sup_v4.2.0
Cell114ref_Saur_BSA_221019_NK_sup,r1041_e82_400bps_sup_v4.2.0
Cell114_Ecoli_BSA_221206_NK_dorado_SUP.fastq.gz,r1041_e82_400bps_sup_v4.2.0
Cell114ref_Ecoli_221012_NK_dorado_SUP.fastq.gz,r1041_e82_400bps_sup_v4.2.0
Cell114ref_Kpneu_BSA_221019_NK_dorado_SUP.fastq.gz,r1041_e82_400bps_sup_v4.2.0
Cell114ref_Pa01_BSA_221019_NK_dorado_SUP.fastq.gz,r1041_e82_400bps_sup_v4.2.0
Cell114ref_Saur_BSA_221019_NK_dorado_SUP.fastq.gz,r1041_e82_400bps_sup_v4.2.0
Cell114_Ecoli_BSA_221206_NK_dorado_DUPLEX,r1041_e82_400bps_sup_v4.2.0
Cell114ref_Ecoli_221012_NK_dorado_DUPLEX,r1041_e82_400bps_sup_v4.2.0
Cell114ref_Kpneu_BSA_221019_NK_dorado_DUPLEX,r1041_e82_400bps_sup_v4.2.0
Cell114ref_Pa01_BSA_221019_NK_dorado_DUPLEX,r1041_e82_400bps_sup_v4.2.0
Cell114ref_Saur_BSA_221019_NK_dorado_DUPLEX,r1041_e82_400bps_sup_v4.2.0
RBK114_BSAPOS_Kpneu,r1041_e82_400bps_sup_v4.2.0
RBK114_BSAPOS_Pa01,r1041_e82_400bps_sup_v4.2.0
RBK114_BSAPOS_Ecoli,r1041_e82_400bps_sup_v4.2.0
RBK114_BSAPOS_MRSA,r1041_e82_400bps_sup_v4.2.0
RBK114_BSANEG_Kpneu,r1041_e82_400bps_sup_v4.2.0
RBK114_BSANEG_Pa01,r1041_e82_400bps_sup_v4.2.0
RBK114_BSANEG_Ecoli,r1041_e82_400bps_sup_v4.2.0
RBK114_BSANEG_MRSA,r1041_e82_400bps_sup_v4.2.0
RBK114_BSAPOS_Kpneu_duplex,r1041_e82_400bps_sup_v4.2.0
RBK114_BSAPOS_Pa01_duplex,r1041_e82_400bps_sup_v4.2.0
RBK114_BSAPOS_Ecoli_duplex,r1041_e82_400bps_sup_v4.2.0
RBK114_BSAPOS_MRSA_duplex,r1041_e82_400bps_sup_v4.2.0
RBK114_BSANEG_Kpneu_duplex,r1041_e82_400bps_sup_v4.2.0
RBK114_BSANEG_Pa01_duplex,r1041_e82_400bps_sup_v4.2.0
RBK114_BSANEG_Ecoli_duplex,r1041_e82_400bps_sup_v4.2.0
RBK114_BSANEG_MRSA_duplex,r1041_e82_400bps_sup_v4.2.0
NATIVE_BSAPOS_Kpneu,r1041_e82_400bps_sup_v4.2.0
NATIVE_BSAPOS_Pa01,r1041_e82_400bps_sup_v4.2.0
NATIVE_BSAPOS_Ecoli,r1041_e82_400bps_sup_v4.2.0
NATIVE_BSAPOS_MRSA,r1041_e82_400bps_sup_v4.2.0
NATIVE_BSAPOS_Kpneu_duplex,r1041_e82_400bps_sup_v4.2.0
NATIVE_BSAPOS_Pa01_duplex,r1041_e82_400bps_sup_v4.2.0
NATIVE_BSAPOS_Ecoli_duplex,r1041_e82_400bps_sup_v4.2.0
NATIVE_BSAPOS_MRSA_duplex,r1041_e82_400bps_sup_v4.2.0
NATIVE_BSAPOS_Kpneu_repeatrepeat,r1041_e82_400bps_sup_v4.2.0
NATIVE_BSAPOS_Pa01_repeat,r1041_e82_400bps_sup_v4.2.0
NATIVE_BSAPOS_Ecoli_repeat,r1041_e82_400bps_sup_v4.2.0
NATIVE_BSAPOS_MRSA_repeat,r1041_e82_400bps_sup_v4.2.0
RBK114_BSANEG_Ecoli_dorado_SUP,r1041_e82_400bps_sup_v4.2.0
RBK114_BSANEG_Kpneu_dorado_SUP,r1041_e82_400bps_sup_v4.2.0
RBK114_BSANEG_MRSA_dorado_SUP,r1041_e82_400bps_sup_v4.2.0
RBK114_BSANEG_Pa01_dorado_SUP,r1041_e82_400bps_sup_v4.2.0
RBK114_BSAPOS_Ecoli_dorado_SUP,r1041_e82_400bps_sup_v4.2.0
RBK114_BSAPOS_Kpneu_dorado_SUP,r1041_e82_400bps_sup_v4.2.0
RBK114_BSAPOS_MRSA_dorado_SUP,r1041_e82_400bps_sup_v4.2.0
RBK114_BSAPOS_Pa01_dorado_SUP,r1041_e82_400bps_sup_v4.2.0